<svg xmlns="http://www.w3.org/2000/svg" viewBox="0 0 274.84 110.4">
    <defs>
        <style>.cls-1{font-size:48px;fill:#fff;font-family:Italiana-Regular, Italiana;}.cls-2{letter-spacing:-0.03em;}.cls-3{letter-spacing:-0.01em;}.cls-4{letter-spacing:-0.01em;}.cls-5{letter-spacing:-0.01em;}</style>
    </defs>
    <g id="anime" data-name="Layer 2">
        <g id="Layer_1-2" data-name="Layer 1">
            <text class="cls-1" transform="translate(0 40.8)">
                <tspan class="cls-2">R</tspan>
                <tspan class="cls-3" x="27.41" y="0">O</tspan>
                <tspan x="61.49" y="0">LLEO WEB</tspan>
                <tspan class="cls-4" x="60.58" y="57.6">D</tspan>
                <tspan x="89.95" y="57.6">ES</tspan>
                <tspan class="cls-5" x="139.87" y="57.6">I</tspan>
                <tspan x="154.65" y="57.6">GN</tspan>
            </text>
        </g>
    </g>
</svg>